^C:\USERS\SHELLA\SOURCE\REPOS\CONSOLEAPPLICATION75\CONSOLEAPPLICATION75\CONSOLEAPPLICATION75.CPP
/c /ZI /JMC /nologo /W3 /WX- /diagnostics:classic /sdl /Od /Oy- /D WIN32 /D _DEBUG /D _CONSOLE /D _UNICODE /D UNICODE /Gm- /EHsc /RTC1 /MDd /GS /fp:precise /permissive- /Zc:wchar_t /Zc:forScope /Zc:inline /Fo"DEBUG\\" /Fd"DEBUG\VC141.PDB" /Gd /TP /analyze- /FC C:\USERS\SHELLA\SOURCE\REPOS\CONSOLEAPPLICATION75\CONSOLEAPPLICATION75\CONSOLEAPPLICATION75.CPP
^C:\USERS\SHELLA\DOCUMENTS\SY19T2-BASPROG2-TG001A-IGNA-SHELLA-MAE\MIDTERM\CONSOLEAPPLICATION75\CONSOLEAPPLICATION75.CPP
/c /ZI /JMC /nologo /W3 /WX- /diagnostics:classic /sdl /Od /Oy- /D WIN32 /D _DEBUG /D _CONSOLE /D _UNICODE /D UNICODE /Gm- /EHsc /RTC1 /MDd /GS /fp:precise /permissive- /Zc:wchar_t /Zc:forScope /Zc:inline /Fo"DEBUG\\" /Fd"DEBUG\VC141.PDB" /Gd /TP /analyze- /FC C:\USERS\SHELLA\DOCUMENTS\SY19T2-BASPROG2-TG001A-IGNA-SHELLA-MAE\MIDTERM\CONSOLEAPPLICATION75\CONSOLEAPPLICATION75.CPP
