^C:\USERS\SHELLA\SOURCE\REPOS\CONSOLEAPPLICATION71\CONSOLEAPPLICATION71\DEBUG\CONSOLEAPPLICATION71.OBJ|C:\USERS\SHELLA\SOURCE\REPOS\CONSOLEAPPLICATION71\CONSOLEAPPLICATION71\DEBUG\PCH.OBJ
C:\USERS\SHELLA\SOURCE\REPOS\CONSOLEAPPLICATION71\DEBUG\CONSOLEAPPLICATION71.EXE
C:\USERS\SHELLA\SOURCE\REPOS\CONSOLEAPPLICATION71\DEBUG\CONSOLEAPPLICATION71.ILK
C:\USERS\SHELLA\SOURCE\REPOS\CONSOLEAPPLICATION71\DEBUG\CONSOLEAPPLICATION71.PDB
