^C:\USERS\SHELLA\SOURCE\REPOS\CONSOLEAPPLICATION72\CONSOLEAPPLICATION72\DEBUG\CONSOLEAPPLICATION72.OBJ|C:\USERS\SHELLA\SOURCE\REPOS\CONSOLEAPPLICATION72\CONSOLEAPPLICATION72\DEBUG\PCH.OBJ
C:\USERS\SHELLA\SOURCE\REPOS\CONSOLEAPPLICATION72\DEBUG\CONSOLEAPPLICATION72.EXE
C:\USERS\SHELLA\SOURCE\REPOS\CONSOLEAPPLICATION72\DEBUG\CONSOLEAPPLICATION72.ILK
C:\USERS\SHELLA\SOURCE\REPOS\CONSOLEAPPLICATION72\DEBUG\CONSOLEAPPLICATION72.PDB
