^C:\USERS\SHELLA\SOURCE\REPOS\CONSOLEAPPLICATION82\CONSOLEAPPLICATION82\DEBUG\CONSOLEAPPLICATION82.OBJ
C:\USERS\SHELLA\SOURCE\REPOS\CONSOLEAPPLICATION82\DEBUG\CONSOLEAPPLICATION82.ILK
C:\USERS\SHELLA\SOURCE\REPOS\CONSOLEAPPLICATION82\DEBUG\CONSOLEAPPLICATION82.EXE
C:\USERS\SHELLA\SOURCE\REPOS\CONSOLEAPPLICATION82\DEBUG\CONSOLEAPPLICATION82.PDB
