^C:\USERS\SHELLA\SOURCE\REPOS\CONSOLEAPPLICATION73\CONSOLEAPPLICATION73\PCH.CPP
C:\USERS\SHELLA\SOURCE\REPOS\CONSOLEAPPLICATION73\CONSOLEAPPLICATION73\DEBUG\CONSOLEAPPLICATION73.PCH
C:\USERS\SHELLA\SOURCE\REPOS\CONSOLEAPPLICATION73\CONSOLEAPPLICATION73\DEBUG\VC141.PDB
C:\USERS\SHELLA\SOURCE\REPOS\CONSOLEAPPLICATION73\CONSOLEAPPLICATION73\DEBUG\VC141.IDB
C:\USERS\SHELLA\SOURCE\REPOS\CONSOLEAPPLICATION73\CONSOLEAPPLICATION73\DEBUG\PCH.OBJ
^C:\USERS\SHELLA\SOURCE\REPOS\CONSOLEAPPLICATION73\CONSOLEAPPLICATION73\CONSOLEAPPLICATION73.CPP
C:\USERS\SHELLA\SOURCE\REPOS\CONSOLEAPPLICATION73\CONSOLEAPPLICATION73\DEBUG\VC141.PDB
C:\USERS\SHELLA\SOURCE\REPOS\CONSOLEAPPLICATION73\CONSOLEAPPLICATION73\DEBUG\VC141.IDB
C:\USERS\SHELLA\SOURCE\REPOS\CONSOLEAPPLICATION73\CONSOLEAPPLICATION73\DEBUG\CONSOLEAPPLICATION73.OBJ
